{
    "type": "postgres",
    "host": "localhost",
    "port": 5432,
    "username": "postgres",
    "password": "postgres",
    "database": "recipes",
    "synchronize": true,
    "logging": false,
    "entities": ["../**/*.entity.ts"],
    "migrations": ["src/migration/**/*"],
    "subscribers": ["src/subscriber/**/*"],
    "cli": {
      "entitiesDir": "src/entity",
      "migrationsDir": "src/migration",
      "subscribersDir": "src/subscriber"
    }
}